{
	"info": {
		"_postman_id": "6e85ffbb-c4c3-47c3-a55d-e8c046c08859",
		"name": "Echo",
		"schema": "https://schema.getpostman.com/json/collection/v2.1.0/collection.json",
		"_exporter_id": "30774387",
		"_collection_link": "https://mia-space.postman.co/workspace/SiCantik~eb21c4a3-21da-4878-ae6f-9c7412f09070/collection/30774387-6e85ffbb-c4c3-47c3-a55d-e8c046c08859?action=share&source=collection_link&creator=30774387"
	},
	"item": [
		{
			"name": "Test",
			"item": [
				{
					"name": "All User",
					"protocolProfileBehavior": {
						"disableBodyPruning": true
					},
					"request": {
						"auth": {
							"type": "bearer",
							"bearer": [
								{
									"key": "token",
									"value": "eyJhbGciOiJIUzI1NiIsInR5cCI6IkpXVCJ9.eyJyb2xlX2lkIjoxLCJlbWFpbCI6ImRpbWFzMkBrYWJheWFuLmlkIiwibmFtZSI6ImRpbWFzc3NzIiwiZXhwIjoxNzEwNTcxNzg4fQ.a1VRDKoBMooUBDAq9Lu9iFasFbM4XnqbERLudnZb9pc",
									"type": "string"
								}
							]
						},
						"method": "GET",
						"header": [],
						"body": {
							"mode": "raw",
							"raw": "{\r\n    \"email\" : \"dimasanton44@gmail.com\",\r\n    \"password\" : \"12345678\"\r\n}",
							"options": {
								"raw": {
									"language": "json"
								}
							}
						},
						"url": {
							"raw": "http://localhost:3000/api/users",
							"protocol": "http",
							"host": [
								"localhost"
							],
							"port": "3000",
							"path": [
								"api",
								"users"
							]
						}
					},
					"response": []
				},
				{
					"name": "Detail User",
					"protocolProfileBehavior": {
						"disableBodyPruning": true
					},
					"request": {
						"auth": {
							"type": "bearer",
							"bearer": [
								{
									"key": "token",
									"value": "eyJhbGciOiJIUzI1NiIsInR5cCI6IkpXVCJ9.eyJyb2xlX2lkIjoxLCJlbWFpbCI6ImRpbWFzMkBrYWJheWFuLmlkIiwibmFtZSI6ImRpbWFzc3NzIiwiZXhwIjoxNzEwNTcxNzg4fQ.a1VRDKoBMooUBDAq9Lu9iFasFbM4XnqbERLudnZb9pc",
									"type": "string"
								}
							]
						},
						"method": "GET",
						"header": [],
						"body": {
							"mode": "raw",
							"raw": "{\r\n    \"email\" : \"dimasanton44@gmail.com\",\r\n    \"password\" : \"12345678\"\r\n}",
							"options": {
								"raw": {
									"language": "json"
								}
							}
						},
						"url": {
							"raw": "http://localhost:3000/api/users/8",
							"protocol": "http",
							"host": [
								"localhost"
							],
							"port": "3000",
							"path": [
								"api",
								"users",
								"8"
							]
						}
					},
					"response": []
				},
				{
					"name": "Edit User",
					"request": {
						"auth": {
							"type": "bearer",
							"bearer": [
								{
									"key": "token",
									"value": "eyJhbGciOiJIUzI1NiIsInR5cCI6IkpXVCJ9.eyJyb2xlX2lkIjoxLCJlbWFpbCI6ImRpbWFzMkBrYWJheWFuLmlkIiwibmFtZSI6ImRpbWFzc3NzIiwiZXhwIjoxNzEwNTcxNzg4fQ.a1VRDKoBMooUBDAq9Lu9iFasFbM4XnqbERLudnZb9pc",
									"type": "string"
								}
							]
						},
						"method": "PUT",
						"header": [],
						"body": {
							"mode": "raw",
							"raw": "{\r\n    \"role_id\" : 1,\r\n    \"email\" : \"dimas@kabayan.id\",\r\n    \"password\" : \"12345678\",\r\n    \"name\" : \"dimas\"\r\n}",
							"options": {
								"raw": {
									"language": "json"
								}
							}
						},
						"url": {
							"raw": "http://localhost:3000/api/users/8",
							"protocol": "http",
							"host": [
								"localhost"
							],
							"port": "3000",
							"path": [
								"api",
								"users",
								"8"
							]
						}
					},
					"response": []
				},
				{
					"name": "Soft Delete User",
					"request": {
						"auth": {
							"type": "bearer",
							"bearer": [
								{
									"key": "token",
									"value": "eyJhbGciOiJIUzI1NiIsInR5cCI6IkpXVCJ9.eyJyb2xlX2lkIjoxLCJlbWFpbCI6ImRpbWFzMkBrYWJheWFuLmlkIiwibmFtZSI6ImRpbWFzc3NzIiwiZXhwIjoxNzEwNTcxNzg4fQ.a1VRDKoBMooUBDAq9Lu9iFasFbM4XnqbERLudnZb9pc",
									"type": "string"
								}
							]
						},
						"method": "DELETE",
						"header": [],
						"body": {
							"mode": "raw",
							"raw": "{\r\n    \"role_id\" : 1,\r\n    \"email\" : \"dimas@kabayan.id\",\r\n    \"password\" : \"12345678\",\r\n    \"name\" : \"dimas\"\r\n}",
							"options": {
								"raw": {
									"language": "json"
								}
							}
						},
						"url": {
							"raw": "http://localhost:3000/api/users/11",
							"protocol": "http",
							"host": [
								"localhost"
							],
							"port": "3000",
							"path": [
								"api",
								"users",
								"11"
							]
						}
					},
					"response": []
				},
				{
					"name": "Hard Delete User",
					"request": {
						"auth": {
							"type": "bearer",
							"bearer": [
								{
									"key": "token",
									"value": "eyJhbGciOiJIUzI1NiIsInR5cCI6IkpXVCJ9.eyJyb2xlX2lkIjoxLCJlbWFpbCI6ImRpbWFzMkBrYWJheWFuLmlkIiwibmFtZSI6ImRpbWFzc3NzIiwiZXhwIjoxNzEwNTcxNzg4fQ.a1VRDKoBMooUBDAq9Lu9iFasFbM4XnqbERLudnZb9pc",
									"type": "string"
								}
							]
						},
						"method": "DELETE",
						"header": [],
						"body": {
							"mode": "raw",
							"raw": "{\r\n    \"role_id\" : 1,\r\n    \"email\" : \"dimas@kabayan.id\",\r\n    \"password\" : \"12345678\",\r\n    \"name\" : \"dimas\"\r\n}",
							"options": {
								"raw": {
									"language": "json"
								}
							}
						},
						"url": {
							"raw": "http://localhost:3000/api/users-delete/10",
							"protocol": "http",
							"host": [
								"localhost"
							],
							"port": "3000",
							"path": [
								"api",
								"users-delete",
								"10"
							]
						}
					},
					"response": []
				}
			]
		},
		{
			"name": "Auth",
			"item": [
				{
					"name": "Register",
					"request": {
						"method": "POST",
						"header": [],
						"body": {
							"mode": "raw",
							"raw": "{\r\n    \"role_id\" : 1,\r\n    \"email\" : \"dimas2@kabayan.id\",\r\n    \"password\" : \"12345678\",\r\n    \"name\" : \"dimassss\"\r\n}",
							"options": {
								"raw": {
									"language": "json"
								}
							}
						},
						"url": {
							"raw": "http://localhost:3000/register",
							"protocol": "http",
							"host": [
								"localhost"
							],
							"port": "3000",
							"path": [
								"register"
							]
						}
					},
					"response": []
				},
				{
					"name": "Login",
					"request": {
						"method": "POST",
						"header": [],
						"body": {
							"mode": "raw",
							"raw": "{\r\n    \"email\" : \"dimas2@kabayan.id\",\r\n    \"password\" : \"12345678\"\r\n}",
							"options": {
								"raw": {
									"language": "json"
								}
							}
						},
						"url": {
							"raw": "http://localhost:3000/login",
							"protocol": "http",
							"host": [
								"localhost"
							],
							"port": "3000",
							"path": [
								"login"
							]
						}
					},
					"response": []
				},
				{
					"name": "Get Users",
					"protocolProfileBehavior": {
						"disableBodyPruning": true
					},
					"request": {
						"auth": {
							"type": "bearer",
							"bearer": [
								{
									"key": "token",
									"value": "eyJhbGciOiJIUzI1NiIsInR5cCI6IkpXVCJ9.eyJyb2xlX2lkIjoxLCJlbWFpbCI6ImRpbWFzMkBrYWJheWFuLmlkIiwibmFtZSI6ImRpbWFzc3NzIiwiZXhwIjoxNzEwNTcxNzg4fQ.a1VRDKoBMooUBDAq9Lu9iFasFbM4XnqbERLudnZb9pc",
									"type": "string"
								}
							]
						},
						"method": "GET",
						"header": [],
						"body": {
							"mode": "raw",
							"raw": "{\r\n    \"email\" : \"dimasanton44@gmail.com\",\r\n    \"password\" : \"12345678\"\r\n}",
							"options": {
								"raw": {
									"language": "json"
								}
							}
						},
						"url": {
							"raw": "http://localhost:3000/api/get-user",
							"protocol": "http",
							"host": [
								"localhost"
							],
							"port": "3000",
							"path": [
								"api",
								"get-user"
							]
						}
					},
					"response": []
				}
			]
		}
	]
}